X: 1T: Kimberley Ann's JigB: CMIC Collection Vol. 1C: Ian MacDougall
K: EmajM: 6/8
|:"E"EFE EGB| e2f gbg| "A"fec cec| "B"BGE F2G| 
"E"EFE EGB|eBe gbg|"A"fec cec|[1"B"BGE "E"E3:][2"B"BGE "E"E2a|]
|:"E"gfe cBG|Bce gbg|"A"fec cec|"B"BGEf2|
[1"E"a|gfe cBG|Bce gbg|"A"fec cec|"B"BGE e2:|]
[2"E"G|EFE EGB|eBe gbg|"A"fec cec|"B"BGE E3:|]
X: 2T: Mairi Rankin's JigB: Buddy MacMaster Camp Book 2016
C: Kinnon Beaton (July 10, 2003)K: EmajM: 6/8
"E"BcB GFE| egf e2B|"A"Ace "E"GBe|"B"Ffe dcB|
"E"BcB GFE|egf e2 B|"A"Ace "E"Bbg|"B"fbd "E"e3:|
|:"E"gbg fed |eBA GFE|"A"Ace "E"GBe|"B"Ffe dcB|
[1"E"gbg fed|eBA GFE|"A"Ace "E"Bbg | "B"fbd "E"e3:|][2 "E"BcB GFE|egf e2 B| "A"Ace "E"Bbg| "B"fbd "E"e3|]X: 3T: Donny Leblanc's JigB: CMIC Collection Vol. 1
C: Kathleen (Leblanc) PoirierI: We change key hereK: AmajM: 6/8
|:E|"A"AcB AFE|FEC EFA|"D"BcB Baf|"E"ecA BAF|
"A"AcB AFE| FEC EFA|"D"Baf ecB|[1"E"cAA "A"A2:|][2"E"cAA "A"AcB|]
|:"A"Aaa aga|baf ecA|"D"cBB BAB|"E"cBB BcB|
[1"A"Aaa aga|baf ecA|"D"EFA "E"Bcd|"A"ecA AcB:|]
[2"A"AcB AFE|FEC EFA|"D"Baf "E"ecB|"A"cAA A2|]X: 4T: Troy MacGillivray's JigB: Buddy MacMaster Camp Book 2016
C: Kinnon Beaton (Jan 23, 2003)K: AmajM: 6/8e|"A"ABA cBA|"D"dcd fga|"A"efa ABc|"E"fecB2e|
"A"ABA cBA|"D"dcd fga|[1"A"efa ABc|"E"BcB "A"A2:|][2"A"{c}e3 Bcd|"E"cdB "A"A2|]
|:e|"D"f2 A agf|"A"efe ece|"D"agf efa|"E"ABc B2e|
[1"D"f2A agf|"A"efe ece|"D"agf ece|"E"BcB "A"A2:|]
[2 "A"ABA cBA|"D"dcd fga|"A"{c}e3 Bcd|"E"cdB "A"A2|]